%YAML 1.1
%TAG !u! tag:unity3d.com,2011:
--- !u!1001 &92210403433930291
PrefabInstance:
  m_ObjectHideFlags: 0
  serializedVersion: 2
  m_Modification:
    m_TransformParent: {fileID: 0}
    m_Modifications:
    - target: {fileID: 1956710105708390761, guid: 6608773bcb95c99448dd5909bef0f0c3, type: 3}
      propertyPath: _weapon
      value: 0
      objectReference: {fileID: 0}
    - target: {fileID: 1956710105708390761, guid: 6608773bcb95c99448dd5909bef0f0c3, type: 3}
      propertyPath: _audio
      value: 10
      objectReference: {fileID: 0}
    - target: {fileID: 1956710105708390761, guid: 6608773bcb95c99448dd5909bef0f0c3, type: 3}
      propertyPath: _Gfxkey
      value: 7
      objectReference: {fileID: 0}
    - target: {fileID: 1956710105708390761, guid: 6608773bcb95c99448dd5909bef0f0c3, type: 3}
      propertyPath: _config
      value: 
      objectReference: {fileID: 11400000, guid: 7f1a4657b1f449840bf703f76d6e88cb, type: 2}
    - target: {fileID: 3670337714430032021, guid: 6608773bcb95c99448dd5909bef0f0c3, type: 3}
      propertyPath: viewIdField
      value: 0
      objectReference: {fileID: 0}
    - target: {fileID: 6866689665974004939, guid: 6608773bcb95c99448dd5909bef0f0c3, type: 3}
      propertyPath: m_LocalPosition.x
      value: 0.833
      objectReference: {fileID: 0}
    - target: {fileID: 6866689665974004939, guid: 6608773bcb95c99448dd5909bef0f0c3, type: 3}
      propertyPath: m_LocalPosition.y
      value: 0.224
      objectReference: {fileID: 0}
    - target: {fileID: 6866689665974004939, guid: 6608773bcb95c99448dd5909bef0f0c3, type: 3}
      propertyPath: m_LocalPosition.z
      value: 0
      objectReference: {fileID: 0}
    - target: {fileID: 6866689665974004939, guid: 6608773bcb95c99448dd5909bef0f0c3, type: 3}
      propertyPath: m_LocalRotation.x
      value: 0
      objectReference: {fileID: 0}
    - target: {fileID: 6866689665974004939, guid: 6608773bcb95c99448dd5909bef0f0c3, type: 3}
      propertyPath: m_LocalRotation.y
      value: 0
      objectReference: {fileID: 0}
    - target: {fileID: 6866689665974004939, guid: 6608773bcb95c99448dd5909bef0f0c3, type: 3}
      propertyPath: m_LocalRotation.z
      value: 0
      objectReference: {fileID: 0}
    - target: {fileID: 6866689665974004939, guid: 6608773bcb95c99448dd5909bef0f0c3, type: 3}
      propertyPath: m_LocalRotation.w
      value: 1
      objectReference: {fileID: 0}
    - target: {fileID: 6866689665974004939, guid: 6608773bcb95c99448dd5909bef0f0c3, type: 3}
      propertyPath: m_RootOrder
      value: 0
      objectReference: {fileID: 0}
    - target: {fileID: 6866689665974004939, guid: 6608773bcb95c99448dd5909bef0f0c3, type: 3}
      propertyPath: m_LocalEulerAnglesHint.x
      value: 0
      objectReference: {fileID: 0}
    - target: {fileID: 6866689665974004939, guid: 6608773bcb95c99448dd5909bef0f0c3, type: 3}
      propertyPath: m_LocalEulerAnglesHint.y
      value: 0
      objectReference: {fileID: 0}
    - target: {fileID: 6866689665974004939, guid: 6608773bcb95c99448dd5909bef0f0c3, type: 3}
      propertyPath: m_LocalEulerAnglesHint.z
      value: 0
      objectReference: {fileID: 0}
    - target: {fileID: 6866689665974004941, guid: 6608773bcb95c99448dd5909bef0f0c3, type: 3}
      propertyPath: m_Name
      value: GetWeapon_pistol
      objectReference: {fileID: 0}
    m_RemovedComponents: []
  m_SourcePrefab: {fileID: 100100000, guid: 6608773bcb95c99448dd5909bef0f0c3, type: 3}
