%YAML 1.1
%TAG !u! tag:unity3d.com,2011:
--- !u!114 &11400000
MonoBehaviour:
  m_ObjectHideFlags: 0
  m_CorrespondingSourceObject: {fileID: 0}
  m_PrefabInstance: {fileID: 0}
  m_PrefabAsset: {fileID: 0}
  m_GameObject: {fileID: 0}
  m_Enabled: 1
  m_EditorHideFlags: 0
  m_Script: {fileID: 11500000, guid: 1ecdbe52a42cb4540b8ce348a318f9fa, type: 3}
  m_Name: Gameconfig
  m_EditorClassIdentifier: 
  _area: {x: 15, y: 15}
  _rngSizeDecoratorStar: {x: 0.02, y: 0.1}
  _maxSecondsToAddNextProp: 10
  _maxPlayersByRoom: 20
