%YAML 1.1
%TAG !u! tag:unity3d.com,2011:
--- !u!114 &11400000
MonoBehaviour:
  m_ObjectHideFlags: 0
  m_CorrespondingSourceObject: {fileID: 0}
  m_PrefabInstance: {fileID: 0}
  m_PrefabAsset: {fileID: 0}
  m_GameObject: {fileID: 0}
  m_Enabled: 1
  m_EditorHideFlags: 0
  m_Script: {fileID: 11500000, guid: aad1c7f28bc24d84fb480d95cc1f3d02, type: 3}
  m_Name: GfxData
  m_EditorClassIdentifier: 
  _gfxStorage:
  - _name: SmashBox
    _gfx: {fileID: 1480803620509198404, guid: 8f8db76e07a660f4bab8589025153f0f, type: 3}
    _gfxKey: 1
  - _name: Player Damage
    _gfx: {fileID: 4299123567383207912, guid: b91b9b761bb61e947a3a4e7f7ddad17c, type: 3}
    _gfxKey: 2
  - _name: Player Die
    _gfx: {fileID: 8553979311923586457, guid: 39edb9012a91bbc45a7c6ea422d4be0d, type: 3}
    _gfxKey: 3
  - _name: Default Fire
    _gfx: {fileID: 6438084105064193477, guid: f528240ab2f270b448c908db439d885a, type: 3}
    _gfxKey: 4
  - _name: Player Spawn
    _gfx: {fileID: 8380370762019863397, guid: 64c4cb2637f6d06439a4bdcbf94038ce, type: 3}
    _gfxKey: 5
  - _name: GetScore
    _gfx: {fileID: 2600590042787153839, guid: 425eba5714efceb4a942310abeea4a75, type: 3}
    _gfxKey: 6
  - _name: BulletImpact
    _gfx: {fileID: 4858502136222081028, guid: dbf37350801c1034b8d0509d0167ed0a, type: 3}
    _gfxKey: 8
  - _name: GetWeapon
    _gfx: {fileID: 23396713456567981, guid: 6f57ec2c4aa8e7748a5f7028a5d09618, type: 3}
    _gfxKey: 7
  - _name: GetLife
    _gfx: {fileID: 1601068893306116234, guid: 80bd9b755299b314fb85dd94638ce7bd, type: 3}
    _gfxKey: 9
